Metody walidacji modeli statystycznych - 13 Poszukiwanie optymalnego modelu
…
Kolumna option zawiera teraz wszystkie opcje, których użyliśmy w wywołaniu workflow_map(). W kolumnach result, notacje tune[+] i rsmp[+] oznaczają, że obiekt nie miał żadnych problemów w procesie optymalizacji. Wartość taka jak tune[x] pojawia się, gdy wszystkie modele z jakiegoś powodu zawiodły.

Istnieje kilka wygodnych funkcji do badania wyników, takich jak grid_results. Funkcja rank_results() uporządkuje modele według wybranej metryki wydajności. Domyślnie używa ona pierwszej metryki w zestawie metryk (w tym przypadku RMSE). Przefiltrujmy wyniki, aby analizować tylko na RMSE:

Kod
grid_results %>% 
   rank_results() %>% 
   filter(.metric == "rmse") %>% 
   select(model, .config, rmse = mean, rank)

# A tibble: 252 × 4
   model        .config                rmse  rank
   <chr>        <chr>                 <dbl> <int>
 1 boost_tree   Preprocessor1_Model04  4.25     1
 2 boost_tree   Preprocessor1_Model06  4.29     2
 3 boost_tree   Preprocessor1_Model13  4.31     3
 4 boost_tree   Preprocessor1_Model14  4.39     4
 5 boost_tree   Preprocessor1_Model16  4.46     5
 6 boost_tree   Preprocessor1_Model03  4.47     6
 7 boost_tree   Preprocessor1_Model15  4.48     7
 8 boost_tree   Preprocessor1_Model05  4.55     8
 9 boost_tree   Preprocessor1_Model20  4.71     9
10 cubist_rules Preprocessor1_Model24  4.71    10
# ℹ 242 more rows
…
