Metody walidacji modeli statystycznych - 3 Modele inferencyjne
…
Wynik testu nie daje podstaw do odrzucenia hipotezy o tym, że przeciętny wiek w badanej populacji wynosi 40 lat. Przeprowadzimy teraz wnioskowanie w oparciu o techniki bootstrap i permutacyjną.

Kod
null_mean <- gss |> 
  specify(response = age) |> # określenie zmiennej
  hypothesise(null = "point", mu = 40) |> # ustalienie hipotezy
  generate(1000, type = "bootstrap") |> # generujemy dane
  calculate(stat = "mean")
null_mean

Response: age (numeric)
Null Hypothesis: point
# A tibble: 1,000 × 2
   replicate  stat
       <int> <dbl>
 1         1  40.2
 2         2  39.9
 3         3  39.7
 4         4  39.5
 5         5  39.9
 6         6  39.7
 7         7  40.6
 8         8  39.9
 9         9  39.4
10        10  39.9
# ℹ 990 more rows
…
