Metody walidacji modeli statystycznych - 4 Przegląd miar dopasowania modelu
…
# określam model
lr_mod <- logistic_reg() |> 
  set_engine("glm") |> 
  set_mode("classification")

# uczę model
lr_fit <- lr_mod |> 
  fit(Attrition ~ ., data = train_data)

# podsumowanie modelu
lr_fit |> 
  tidy() 

# A tibble: 58 × 5
   term                             estimate   std.error statistic   p.value
   <chr>                               <dbl>       <dbl>     <dbl>     <dbl>
 1 (Intercept)                     -3.41     1261.       -0.00270  0.998    
 2 Age                             -0.0375      0.0179   -2.09     0.0364   
 3 BusinessTravelTravel_Frequently  2.14        0.546     3.92     0.0000875
 4 BusinessTravelTravel_Rarely      1.31        0.505     2.60     0.00942  
 5 DailyRate                       -0.000213    0.000279 -0.766    0.444    
 6 DepartmentResearch_Development   0.783    1261.        0.000621 1.00     
 7 DepartmentSales                 13.7      1115.        0.0123   0.990    
 8 DistanceFromHome                 0.0452      0.0137    3.30     0.000964 
 9 Education.L                      0.353       0.435     0.811    0.417    
10 Education.Q                      0.170       0.372     0.458    0.647    
# ℹ 48 more rows
…
Wybór optymalnego progu odcięcia.

Kod
library(probably)

# ustalam zakres threshold
thresholds <- seq(0.01,1, by = 0.01)

# poszukuje najlepszego progu ze względu kryterium Youden'a
pred |>
  threshold_perf(Attrition, .pred_Yes, thresholds, event_level = "second") |>
  pivot_wider(names_from = .metric, values_from = .estimate) |>
  arrange(-j_index)

# A tibble: 100 × 6
   .threshold .estimator  sens  spec j_index distance
        <dbl> <chr>      <dbl> <dbl>   <dbl>    <dbl>
 1       0.19 binary     0.722 0.838   0.560    0.103
 2       0.17 binary     0.736 0.816   0.552    0.103
 3       0.18 binary     0.722 0.824   0.547    0.108
 4       0.16 binary     0.736 0.808   0.544    0.106
 5       0.2  binary     0.694 0.846   0.540    0.117
 6       0.22 binary     0.681 0.857   0.537    0.123
 7       0.15 binary     0.736 0.797   0.533    0.111
 8       0.21 binary     0.681 0.851   0.532    0.124
 9       0.12 binary     0.75  0.773   0.523    0.114
10       0.26 binary     0.639 0.884   0.523    0.144
# ℹ 90 more rows
…
