Metody walidacji modeli statystycznych - 7 Metody próbkowania
…
Rysunek 7.4: Wielkość błędu standardowego estymacji w zależności od liczby powtórzeń walidacji krzyżowych

Generalnie zwiększanie liczby replikacji nie ma dużego wpływu na błąd standardowy estymacji, chyba że bazowa wartość \(\sigma\) jest duża, wówczas faktycznie warto zwiększać liczbę replikacji.

Kod
vfold_cv(ames_train, v = 10, repeats = 5)

#  10-fold cross-validation repeated 5 times 
# A tibble: 50 × 3
   splits             id      id2   
   <list>             <chr>   <chr> 
 1 <split [2107/235]> Repeat1 Fold01
 2 <split [2107/235]> Repeat1 Fold02
 3 <split [2108/234]> Repeat1 Fold03
 4 <split [2108/234]> Repeat1 Fold04
 5 <split [2108/234]> Repeat1 Fold05
 6 <split [2108/234]> Repeat1 Fold06
 7 <split [2108/234]> Repeat1 Fold07
 8 <split [2108/234]> Repeat1 Fold08
 9 <split [2108/234]> Repeat1 Fold09
10 <split [2108/234]> Repeat1 Fold10
# … with 40 more rows
…
