Metody walidacji modeli statystycznych - 6 Praca z tidymodels
…
# A tibble: 5 × 6
  number operation type     trained skip  id            
   <int> <chr>     <chr>    <lgl>   <lgl> <chr>         
1      1 step      log      TRUE    FALSE log_p06et     
2      2 step      other    TRUE    FALSE my_id         
3      3 step      dummy    TRUE    FALSE dummy_rztdZ   
4      4 step      interact TRUE    FALSE interact_1T8XZ
5      5 step      ns       TRUE    FALSE ns_eTRX6      

Kod
# możemy też wywołać szczegóły konkretnego kroku
tidy(estimated_recipe, id = "my_id")

# A tibble: 21 × 3
   terms        retained           id   
   <chr>        <chr>              <chr>
 1 Neighborhood North_Ames         my_id
 2 Neighborhood College_Creek      my_id
 3 Neighborhood Old_Town           my_id
 4 Neighborhood Edwards            my_id
 5 Neighborhood Somerset           my_id
 6 Neighborhood Northridge_Heights my_id
 7 Neighborhood Gilbert            my_id
 8 Neighborhood Sawyer             my_id
 9 Neighborhood Northwest_Ames     my_id
10 Neighborhood Sawyer_West        my_id
# ℹ 11 more rows
…
